…
  all_simulations <- rbind(all_simulations, simulated_data)
}

summary_stats <- all_simulations %>%
  select(EX, rep) %>%
  group_by(rep) %>%
  summarize(across(everything(), list(mean = mean, sd = sd)))

summary_stats
```

    ## # A tibble: 100 × 3
    ##      rep EX_mean EX_sd
    ##    <int>   <dbl> <dbl>
    ##  1     1  -0.430 1.03 
    ##  2     2  -0.357 0.957
    ##  3     3  -0.546 0.818
    ##  4     4  -0.502 0.941
    ##  5     5  -0.413 0.980
    ##  6     6  -0.481 1.04 
    ##  7     7  -0.374 1.09 
    ##  8     8  -0.565 1.05 
    ##  9     9  -0.465 1.02 
    ## 10    10  -0.641 1.03 
    ## # ℹ 90 more rows

``` r
summary_stats_cor <- all_simulations %>%
  select(rep,EX, OP) %>%
  group_by(rep) %>%
  summarise(correlation = cor(EX, OP))

summary_stats_cor
```

    ## # A tibble: 100 × 2
    ##      rep correlation
    ##    <int>       <dbl>
    ##  1     1       0.274
    ##  2     2       0.233
    ##  3     3       0.409
    ##  4     4       0.192
    ##  5     5       0.336
    ##  6     6       0.268
    ##  7     7       0.148
    ##  8     8       0.390
    ##  9     9       0.336
    ## 10    10       0.242
    ## # ℹ 90 more rows
…
